lab5
…
## # A tibble: 5 x 2
##     SEX     n
##   <int> <int>
## 1     1 37654
## 2     2 13555
## 3     8   110
## 4     9   955
## 5    NA    90

a<-dat%>%group_by(DAY_WEEK,HOUR,SEX)%>%tally
a

## # A tibble: 650 x 4
## # Groups:   DAY_WEEK, HOUR [175]
##    DAY_WEEK  HOUR   SEX     n
##       <int> <int> <int> <int>
##  1        1     0     1   305
##  2        1     0     2    74
##  3        1     0     8     1
##  4        1     0     9    20
##  5        1     0    NA     1
##  6        1     1     1   300
##  7        1     1     2    77
##  8        1     1     9    14
##  9        1     1    NA     2
## 10        1     2     1   338
## # ... with 640 more rows
…
